…
    ## See spec(...) for full column specifications.

``` r
subway_df
```

    ## # A tibble: 1,868 x 19
    ##    line  station_name station_latitude station_longitu… route1 route2
    ##    <chr> <chr>                   <dbl>            <dbl> <chr>  <chr> 
    ##  1 4 Av… 25th St                  40.7            -74.0 R      <NA>  
    ##  2 4 Av… 25th St                  40.7            -74.0 R      <NA>  
    ##  3 4 Av… 36th St                  40.7            -74.0 N      R     
    ##  4 4 Av… 36th St                  40.7            -74.0 N      R     
    ##  5 4 Av… 36th St                  40.7            -74.0 N      R     
    ##  6 4 Av… 45th St                  40.6            -74.0 R      <NA>  
    ##  7 4 Av… 45th St                  40.6            -74.0 R      <NA>  
    ##  8 4 Av… 45th St                  40.6            -74.0 R      <NA>  
    ##  9 4 Av… 45th St                  40.6            -74.0 R      <NA>  
    ## 10 4 Av… 53rd St                  40.6            -74.0 R      <NA>  
    ## # ... with 1,858 more rows, and 13 more variables: route3 <chr>,
    ## #   route4 <chr>, route5 <chr>, route6 <chr>, route7 <chr>, route8 <int>,
    ## #   route9 <int>, route10 <int>, route11 <int>, entry <lgl>,
    ## #   vending <chr>, entrance_type <chr>, ada <lgl>
…
    ## [1] 0.3770492

As above, there are 465 distinct stations, and 84 of them are ADA compliant. About 37.7% of station entrances / exits do not have vending allow entrance.

1.3 Reformat the data
---------------------

``` r
subway_tidy = 
  gather(subway_df, key = "route_number", value = "route_name", route1:route11)
subway_tidy
```

    ## # A tibble: 20,548 x 10
    ##    line  station_name station_latitude station_longitu… entry vending
    ##    <chr> <chr>                   <dbl>            <dbl> <lgl> <chr>  
    ##  1 4 Av… 25th St                  40.7            -74.0 TRUE  YES    
    ##  2 4 Av… 25th St                  40.7            -74.0 TRUE  YES    
    ##  3 4 Av… 36th St                  40.7            -74.0 TRUE  YES    
    ##  4 4 Av… 36th St                  40.7            -74.0 TRUE  YES    
    ##  5 4 Av… 36th St                  40.7            -74.0 TRUE  YES    
    ##  6 4 Av… 45th St                  40.6            -74.0 TRUE  YES    
    ##  7 4 Av… 45th St                  40.6            -74.0 TRUE  YES    
    ##  8 4 Av… 45th St                  40.6            -74.0 TRUE  YES    
    ##  9 4 Av… 45th St                  40.6            -74.0 TRUE  YES    
    ## 10 4 Av… 53rd St                  40.6            -74.0 TRUE  YES    
    ## # ... with 20,538 more rows, and 4 more variables: entrance_type <chr>,
    ## #   ada <lgl>, route_number <chr>, route_name <chr>
…
2.1 Import data of MR.Trash Wheel
---------------------------------

``` r
wheel_df = 
  readxl::read_excel("./data/HealthyHarborWaterWheelTotals2018-7-28.xlsx", 
                     sheet = 1, range = "A2:N338") %>% 
  janitor::clean_names() %>% 
  filter(!is.na(dumpster)) %>% 
  mutate(sports_balls = as.integer(round(sports_balls)))
wheel_df
```

    ## # A tibble: 285 x 14
    ##    dumpster month  year date                weight_tons volume_cubic_ya…
    ##       <dbl> <chr> <dbl> <dttm>                    <dbl>            <dbl>
    ##  1        1 May    2014 2014-05-16 00:00:00        4.31               18
    ##  2        2 May    2014 2014-05-16 00:00:00        2.74               13
    ##  3        3 May    2014 2014-05-16 00:00:00        3.45               15
    ##  4        4 May    2014 2014-05-17 00:00:00        3.1                15
    ##  5        5 May    2014 2014-05-17 00:00:00        4.06               18
    ##  6        6 May    2014 2014-05-20 00:00:00        2.71               13
    ##  7        7 May    2014 2014-05-21 00:00:00        1.91                8
    ##  8        8 May    2014 2014-05-28 00:00:00        3.7                16
    ##  9        9 June   2014 2014-06-05 00:00:00        2.52               14
    ## 10       10 June   2014 2014-06-11 00:00:00        3.76               18
    ## # ... with 275 more rows, and 8 more variables: plastic_bottles <dbl>,
    ## #   polystyrene <dbl>, cigarette_butts <dbl>, glass_bottles <dbl>,
    ## #   grocery_bags <dbl>, chip_bags <dbl>, sports_balls <int>,
    ## #   homes_powered <dbl>
…
precipitation_2017 = 
  readxl::read_excel("./data/HealthyHarborWaterWheelTotals2018-7-28.xlsx", 
                     sheet = 4, range = "A2:B14") %>% 
  janitor::clean_names() %>% 
  filter(!is.na(total)) %>% 
  mutate(year = "2017") %>% 
  select(year, everything())

precipitation_df = 
  bind_rows(precipitation_2016, precipitation_2017) %>%
  mutate(month = month.name[month])
precipitation_df
```

    ## # A tibble: 24 x 3
    ##    year  month     total
    ##    <chr> <chr>     <dbl>
    ##  1 2016  January    3.23
    ##  2 2016  February   5.32
    ##  3 2016  March      2.24
    ##  4 2016  April      1.78
    ##  5 2016  May        5.19
    ##  6 2016  June       3.2 
    ##  7 2016  July       6.09
    ##  8 2016  August     3.96
    ##  9 2016  September  4.53
    ## 10 2016  October    0.62
    ## # ... with 14 more rows
…
library(p8105.datasets)
data("brfss_smart2010")
overall_health_data = 
  janitor::clean_names(brfss_smart2010) %>% 
  filter(topic == "Overall Health") %>% 
  select(-"class", -"topic", -"question", -"sample_size",
         -"confidence_limit_low":-"geo_location") %>% 
  spread(key = "response", value = data_value) %>% 
  janitor::clean_names() %>% 
  select(year, locationabbr, locationdesc, excellent, very_good, good, fair, poor) %>% 
  mutate(proportion = (excellent + very_good))
overall_health_data
```

    ## # A tibble: 2,125 x 9
    ##     year locationabbr locationdesc excellent very_good  good  fair  poor
    ##    <int> <chr>        <chr>            <dbl>     <dbl> <dbl> <dbl> <dbl>
    ##  1  2002 AK           AK - Anchor…      27.9      33.7  23.8   8.6   5.9
    ##  2  2002 AL           AL - Jeffer…      18.5      30.9  32.7  12.1   5.9
    ##  3  2002 AR           AR - Pulask…      24.1      29.3  29.9  12.5   4.2
    ##  4  2002 AZ           AZ - Marico…      21.6      36.6  26.9  10.3   4.6
    ##  5  2002 AZ           AZ - Pima C…      26.6      30.1  31.9   7.5   3.9
    ##  6  2002 CA           CA - Los An…      22.7      29.8  28.7  14.3   4.5
    ##  7  2002 CO           CO - Adams …      21.2      31.2  29    14.4   4.2
    ##  8  2002 CO           CO - Arapah…      25.5      35.2  29.3   8     2.1
    ##  9  2002 CO           CO - Denver…      22.2      27.1  36.6  11.1   3  
    ## 10  2002 CO           CO - Jeffer…      23.4      36.6  26.3  11.4   2.4
    ## # ... with 2,115 more rows, and 1 more variable: proportion <dbl>
…
overall_health_data0 = 
  janitor::clean_names(brfss_smart2010) %>% 
  filter(topic == "Overall Health") %>% 
  select(-"class", -"topic", -"question", -"sample_size",
         -"confidence_limit_low":-"geo_location") %>% 
  rename(state = locationabbr, location = locationdesc) %>% 
  separate(location, into = c("stateabbr", "location"), "- ") %>% 
  spread(key = "response", value = data_value) %>% 
  janitor::clean_names() %>% 
  select(year, state, location, excellent, very_good, good, fair, poor) %>% 
  mutate(proportion = (excellent + very_good))
overall_health_data0
```

    ## # A tibble: 2,125 x 9
    ##     year state location   excellent very_good  good  fair  poor proportion
    ##    <int> <chr> <chr>          <dbl>     <dbl> <dbl> <dbl> <dbl>      <dbl>
    ##  1  2002 AK    Anchorage…      27.9      33.7  23.8   8.6   5.9       61.6
    ##  2  2002 AL    Jefferson…      18.5      30.9  32.7  12.1   5.9       49.4
    ##  3  2002 AR    Pulaski C…      24.1      29.3  29.9  12.5   4.2       53.4
    ##  4  2002 AZ    Maricopa …      21.6      36.6  26.9  10.3   4.6       58.2
    ##  5  2002 AZ    Pima Coun…      26.6      30.1  31.9   7.5   3.9       56.7
    ##  6  2002 CA    Los Angel…      22.7      29.8  28.7  14.3   4.5       52.5
    ##  7  2002 CO    Adams Cou…      21.2      31.2  29    14.4   4.2       52.4
    ##  8  2002 CO    Arapahoe …      25.5      35.2  29.3   8     2.1       60.7
    ##  9  2002 CO    Denver Co…      22.2      27.1  36.6  11.1   3         49.3
    ## 10  2002 CO    Jefferson…      23.4      36.6  26.3  11.4   2.4       60  
    ## # ... with 2,115 more rows
…
    ## [1] 404

``` r
nrow(distinct(overall_health_data, locationabbr))
```

    ## [1] 51

``` r
state_df = count(overall_health_data, locationabbr) %>% 
  arrange(desc(n))
state_df
```

    ## # A tibble: 51 x 2
    ##    locationabbr     n
    ##    <chr>        <int>
    ##  1 NJ             146
    ##  2 FL             122
    ##  3 NC             115
    ##  4 WA              97
    ##  5 MD              90
    ##  6 MA              79
    ##  7 TX              71
    ##  8 NY              65
    ##  9 SC              63
    ## 10 CO              59
    ## # ... with 41 more rows
…
